Molecule Name,True Class
AHIRZFCBGSMDPL-JXMROGBWNA-N,0
AJIAOWVCYKDFGH-BYQKKWHOSA-N,1
AJLLHPKYDCMVMR-UHFFFAOYSA-N,1
AJPSBXJNFJCCBI-UHFFFAOYNA-N,1
AKIHQQGZUGZPDK-YDYDEZBNNA-N,0
AMGGGGVJXRPRNC-UHFFFAOYSA-N,1
AOUNVUHADLIPSM-QNTPMYFHNA-N,1
APFIBTMKZJWVHH-LKUYZAFPSA-N,1
APSUXPSYBJVPPS-DIERVVJLNA-N,1
AQMPIDSGLFVVPL-UHFFFAOYSA-N,0
ARSNLQCMDVFQDA-UHFFFAOYSA-N,0
ASEDTRKYKLTHTA-WNZIJWEPNA-N,1
ASFBQTPLOUDQLA-UHFFFAOYSA-N,0
ASOVJVGZJDVADR-WTHLFJDCSA-N,0
AVDWHTCJIXKWKF-MMQGKVKMNA-N,1
AWINNJUIVOCERC-HETJUUJQNA-N,1
AWLSTJIFCIWJST-RTBURBONSA-N,1
AWNLKCFWKOGXSI-PVRQQBJHNA-N,0
AWYPHZMWGAOGIC-UHFFFAOYSA-N,0
AXBTYZPRVDTMRF-UHFFFAOYSA-N,0
AYXBNYKLMQACAJ-LEWJYISDSA-N,1
AZHSPISGLOGUCV-OREJGFRCNA-N,1
BCRXLZJWBFEGPG-UHFFFAOYSA-N,0
BEBMAWFZUQPURR-FLKGHMKXNA-N,0
BGPVEBATJGVAJE-KEQUZKIMNA-N,0
BJGBQCZIGZLDSJ-YVBNSZPKNA-N,1
BPMRCXPJKCCXTE-BWEXCJJJNA-N,1
BTVVVOJWIIFSJS-KDUGSRKYNA-N,1
BUZATHRTYONYQM-KZYNSYACNA-N,1
BZWWVIRBGPPRQF-UHFFFAOYSA-N,0
CABNQMWYRFELDG-KXPDIPIYNA-N,1
CAFCSDYYXKUWSC-VVWGFWRPNA-N,0
CBYNCYCFPADTOK-NXHDTTHVSA-N,0
CCPPGQSOZMDHEU-HSONCTAFSA-N,0
CDEAWNFIVOWFEA-UHFFFAOYNA-N,0
CDLZQEQEXGEUBL-BURNTYAHSA-N,0
CESTVULNPDJEOK-UHFFFAOYNA-N,0
CHHRPKMGZRRHBF-WHGHNYNKNA-N,1
CIMPTCWBNSBNEP-UHFFFAOYSA-N,0
CIUZZWVDZRCBDX-UHFFFAOYSA-N,0
CLVRCDVMIOGLTN-JCQVMZTKNA-N,1
CPTUJVNVSNEVEH-IMNFJDCFSA-N,0
CQXGRDFAMBLQBY-HJNRXRNFNA-N,0
CRDPGPNGVQWYOK-UHFFFAOYSA-N,1
CRWFKZALVDZGQH-TXHGYACRNA-N,0
CSCPMNWYKRKRHS-NFYWUODPNA-N,1
CSHMHUZYEYOBPL-UHFFFAOYSA-N,0
CUUMKKLQAZHRPL-GZLVLGKVSA-N,0
CWRICNOKPCBBSF-OGNSZDJQNA-N,1
CYIZZYZUVWCYBV-NTGWPANWNA-N,1
CYNZTGLNKBWNHM-UHFFFAOYNA-N,0
DAZHRURPDJGCFS-FCHUYYIVSA-N,1
DCOQKCYIWZVJMA-VBTSXAJFNA-N,1
DDPYLPBMPHWVGO-VOVNARLJSA-N,1
DHZBNHMEIOBPAE-UHFFFAOYSA-N,1
DIIUDCDSVQJDAE-XSOYMRGSNA-N,1
DJFRCGBULWFDHB-UHFFFAOYSA-N,0
DJMODDBWKMZAEH-UHFFFAOYSA-N,0
DKBVVKQGKJTCLS-NQHRYMMQSA-N,0
DKZOPNMVUJOXRV-IMDSDXEONA-N,0
DLBOMDPTYMCXRF-GBRXSXMXNA-N,1
DNESVBVDIIHDKK-ZUDKYRIGNA-N,1
DRGUKZYCXDRQEJ-GAIVCZKXNA-N,1
DSKWWUVQDXHXCE-FDDCHVKYSA-N,0
DTJQBBHYRQYDEG-UHFFFAOYNA-N,0
DUYDGIOXNYEFHX-UHFFFAOYSA-N,0
DVTNAPPKBSPOMR-NZQKXSOJSA-N,1
DWUKNKDABPWVAE-UHFFFAOYSA-N,0
DZZIAERGLDKTBT-UHFFFAOYSA-N,0
FBDANPRMCCLYRK-UHFFFAOYSA-N,0
FBDRANYVHASQNW-ICJGPBHBNA-N,0
FCKYLHYBJRMIPQ-JNMXEZIINA-N,0
FETCHTUKZYXAPU-DODYBPFYSA-N,1
FFFSFVUFHHZADQ-PYDKLJIVNA-N,1
FHTGZEVOZWRYEL-DSEJECNASA-N,1
FITWJUAGQFUQPT-YRHPKQKUNA-N,1
FKYWSGYMKJUZEP-UDKMLRHGNA-N,0
FNKKDOCWGPFFMB-HQQHJXAJNA-N,1
FQKWDYCZFLBTAI-JHWQBYTRNA-N,1
FQPFKUPUPZAADS-LMDOGRNLSA-N,0
FRMIDCOICRIAHB-UHFFFAOYNA-N,0
FRVHDLURGWMQBI-XORIIVBHNA-N,1
FRZMZWOZKHSEPL-CHWFHOFGSA-N,1
FSVPTFMXFBXEFI-LAUBAEHRSA-N,0
FTRDSYLIWZRYMR-SSAHGBFPNA-N,1
FWDGESPEYFCYPN-GZNXDZDQNA-N,0
FXAPPSUTMKSLEJ-CHCCDMOGSA-N,1
FYVOABSNOLJXJQ-UHFFFAOYSA-N,1
FZPKLZHGBRKKCP-UHFFFAOYSA-N,0
FZPQMESFNIKSCV-UGBIYXHENA-N,1
GAWCJLWAXWTECZ-MMFLNLGANA-N,1
GAYRNSYZZYBBCJ-BGMGHZIZNA-N,0
GBATZJZSCXUUHJ-LGSXMXSWNA-N,1
GBROUOPQHPBRHI-DJGQEPPCSA-N,0
GBZWEJDRTZPHRK-DELVQXDCNA-N,1
GCLQMLGXNNHFSE-SSRLHJTLNA-N,0
GCQBOMHBVPHVMB-UHFFFAOYNA-N,1
GDQPZOJWMRWOJR-KHYWQPMLNA-N,0
GEEUKIGGQGUEOJ-UHFFFAOYNA-N,0
GGCSSNBKKAUURC-UHFFFAOYSA-N,1
GGOHBAJDRFZJLG-PZGUQZKGNA-N,0
GGVSFVBTUMOASO-UHFFFAOYSA-N,0
GHQALVWJILAFPS-IVFRKUFZNA-N,0
GLXWYQQJFYJTRN-UHFFFAOYSA-N,0
GMJZIBRLJSUXFH-RPBOFIJWSA-N,0
GNRSVTHQXVXCIC-UHFFFAOYNA-N,1
GQWPDLSVCAIXST-NXIPDAQENA-N,1
GRHNSLXBGRDMSP-CZAAIQMYSA-N,0
GUIZSHZGBWRXCY-UHFFFAOYSA-N,0
GVBLCFZJLSNDQD-ZPIONOGONA-N,1
GYEXSFKLGQBRBJ-UHFFFAOYNA-N,1
GYODLKSSDRIOEM-GYGTZVBFNA-N,1
GYQFCWWQWNIWNJ-UHFFFAOYNA-N,1
HAYGEOGRXPFPJW-JIHIGDAWNA-N,0
HBZARAPARNDODL-IGSCLKKUNA-N,0
HCSJCBZPTDNABI-UHFFFAOYNA-M,0
HDKIEIZPXNNDMH-NCMVRAGLSA-N,1
HGYDUCGUYXZXRS-LDLYASANNA-N,0
HHYBRMOEHYGPAR-NTGWPANWNA-N,1
HINHHXIQNCLTAZ-DRCLDXGDSA-N,0
HKTMYGZLERUFSV-UHFFFAOYSA-N,0
HNRKCZXMZVWGKJ-UHFFFAOYNA-N,1
HQPWIOOFNUOPRR-UHFFFAOYNA-N,1
HRLBITJBWAMBFC-BZIPHAJMNA-O,0
HSWRWSJGYTWZDW-HETJUUJQNA-N,1
HTUWKTCIVIWVHI-XAGHGKQISA-N,0
HUMQONJSWRHQEI-PIHBZPNWNA-N,1
HUZJHIOVMUYRMS-FICQJBFQNA-N,0
HVJSRTWEAYGCPN-QTXVBCKJSA-N,1
HWXVHNVQBIRMDV-UHFFFAOYSA-N,1
HWZJFIXHBSXMRA-UHFFFAOYSA-N,0
HZFBFVHNMCLRHE-CCIMYMSLNA-N,0
ICQCOHCCXTZXCR-PVWDLEKUNA-N,0
ICVTXAUKIHJDGV-VQMLSWTRNA-N,1
IDMYWOHNBHPTII-UHFFFAOYNA-N,0
IENQHTKISQTRDU-FLAGVVNPNA-N,1
IEYSZWAZVZLXMA-UHFFFAOYNA-N,1
IEZYEEBKOXBUJC-AGQYDFLVSA-N,1
IGSNSHHFXGJMKP-NWDGAFQWSA-N,0
IGVCBUFJKDIFNJ-CUQYJBJONA-N,1
IGVJHKIPOHEGRJ-CQJMVLFOSA-N,0
IHDOVLHHTAJFKU-XAGHGKQISA-N,1
IHVAVLZXZYUVRZ-SRYUIKRINA-N,0
ILSVNVUECQFENV-AFMBGQDCSA-N,0
IMIGYXVXIBPZFP-GIJQXQNDNA-N,1
IPEKTECOTLVVQL-UHFFFAOYSA-N,0
IPFGLNZEKYZGIT-DELVQXDCNA-N,1
IQIHFKQTDHIXJP-UHFFFAOYSA-N,0
IQZZSRVNEXTPDD-PKGNLNPMSA-N,0
ISIVFOIKEDCWTH-UHFFFAOYNA-N,1
IUEIIGPXPHNOQO-PJRKFXRPNA-N,1
IUNNNLPJQWHQNA-AKQSQHNNSA-N,0
IUSZCRDELGBLII-JXMMYVAANA-N,1
IZOHFCRCMJBTBF-AQWOYVFQNA-N,1
JBNVIAMDBGQFPU-CBZTZNMZSA-N,1
JKYJSFISYHSNOE-UHFFFAOYSA-N,1
JLGLWPIHBBGNAU-WOYXWXRWSA-N,1
JLMDSDKAMFOLIF-VQTJNVASSA-N,1
JMCOUXKMURIBCQ-PIWAIRSSNA-N,1
JMUFDGSVPLYBAQ-ZHDDOTHNSA-N,1
JNBBLYXYLWVZBN-GOTSBHOMSA-N,0
JNSXETCCDYBEEE-ODGCDXHBSA-N,1
JONVOPNMVVYXGR-KTJHOKPANA-N,1
JOTDNJDIGBWICX-UHFFFAOYSA-N,0
JRUUFGVWOYBRQT-YYRFBEBFNA-N,0
JUNNRNPPDPOZCZ-COOJVZDNNA-N,1
JUZGQKDSNUFOCQ-SPFVONBBNA-N,0
JVDIYRCPKNTHHT-KAIATANVNA-N,1
JVMCXCLDIPSMCE-LGSXMXSWNA-N,0
JVNZGKUQEQMIMB-LGDFQUBSNA-N,1
JWVVPTYSQPJIFV-QZTJIDSGSA-N,0
JYDLEFHSJSZEPC-CSZVXOJQSA-N,1
KAVRLJPLJJCFAS-WUFINQPMSA-N,0
KBKTWSOCLDXSQT-OSLYBJCVSA-N,0
KEBVEFMIGDGQKK-UHFFFAOYNA-N,0
KEYYWKJLTWUQSG-UHFFFAOYNA-N,1
KFLVOLBPEGAIIK-WMIMKTLMSA-N,0
KFVUSZPWUZBAPF-AGQYDFLVSA-N,1
KKSPQOQIXQXMLV-UHFFFAOYNA-N,1
KKTJITWMMHTMGA-PVRQQBJHNA-N,0
KLGGDJQYLQYXCH-JELYZVLYSA-N,0
KQDFWEOLSLYTJB-UHFFFAOYSA-N,0
KQVCYNWOQKXISA-UHFFFAOYSA-N,1
KRZFDBFJUUOCIA-HAHYJCBVNA-N,1
KTEOARIYVZXCNX-UHFFFAOYNA-N,1
KYASHZYLJWGTDL-NGBRXVAQNA-N,1
KZOINCUHKCVHLK-AERCQKQUNA-N,0
LADSERODBYZUAW-GNLPSFAGNA-N,0
LAVVYFYZWOMWFT-NNMXSAHVSA-N,0
LBJDYBPTWNSHBS-UHFFFAOYSA-N,0
LBJQLPJWKUBKAZ-XIRLWNQPNA-N,1
LEDLUXYLXJQMCA-GZPZORKKNA-N,0
LGKIWGDJKNJYMG-LGWFVXIRNA-N,0
LIKMUGOIKFZCQA-OKYZGBHRSA-N,0
LJPJZWBRUZUDAA-BZPPDAAYSA-N,1
LNEAIVXOJNEWAR-RXPZPPHYNA-N,0
LNNWPEOCROHIMA-KPZRBPSZSA-N,0
LPEZGDFBIWWFNL-UHFFFAOYSA-N,0
LPMUAJZQFSNIBG-UHFFFAOYSA-N,0
LQMOLTNLIVUBMU-UHFFFAOYNA-N,0
LQTOOGHJPQIEMP-UHFFFAOYSA-N,0
LRKOPUBXYKHIPM-HNPKZYAISA-N,1
LSAYODHKWHLPMR-PIAZTOOQSA-N,0
LTBLKAZGCWAXOX-CATXQFRHNA-N,0
LTVHITHSFQIDTL-ZTWIJIPVNA-N,0
LVQQAMOPIWIZSC-SJUZRXCRNA-N,0
LVVHEFJXPXAUDD-BULFRSBZSA-N,1
LVYYHBPAWFABPE-JCKWVBRZSA-N,1
LYBVJRGNHGNDMJ-UHFFFAOYSA-N,0
LYRPGZVFVJKODV-UHFFFAOYSA-N,1
MAPOTTLVIWZPHI-UHFFFAOYNA-N,1
MAWUNCMRNQYWCJ-JSCMMNABNA-N,1
MBUHOVJAFHBTTO-UHFFFAOYSA-N,0
MDTMCHLPEWCDEO-VSVVGSIZNA-N,0
MENDTFDIUWAVMQ-UHFFFAOYSA-N,0
MFSZOBJUKVEFJA-JNDXSTKLSA-N,1
MGIADQYKMHMDKW-UHFFFAOYNA-N,1
MGYAQEPRQTVZOM-UHFFFAOYNA-N,0
MGYBPVKOXFORNZ-QLBGRQKHNA-N,1
MHHORFPFSAYJRI-MMQGKVKMNA-N,0
MJNYRQGREJARAA-UHFFFAOYNA-N,0
MJYXXZICLYPENA-ARFFLKCMNA-N,1
MKHNANMCTRPLDO-BXQCVQRUSA-N,1
MMLBWVFGQOTFET-RMLCQDLPSA-N,0
MMZLBQPGELEPMU-CVUOCSEZSA-N,1
MWJDXNHLIAFHDP-UTFYOTOKSA-N,0
MYFGMKSAPPMOSI-GUJMSQBSNA-N,1
MYSRDSFKRAXUPG-UHFFFAOYSA-N,0
MYYHPWVXRPLYMD-LGWFVXIRNA-N,0
MZQXVMRVTJDWCK-RVVCTDIQSA-N,1
NBLFFMILGMAYPO-OPVJXMOQNA-N,1
NBNXLAMYDYEUPQ-UKPWDAQGNA-N,1
NCWIOZGTVDZSMH-SZJSPXDBNA-N,0
NDRKRHOOZQTUCO-DHIUTWEWSA-N,1
NEFLZELJPCFSHM-UHFFFAOYSA-N,0
NHTWPKUCTUYFEM-UHFFFAOYNA-N,1
NKLVQUALJNHRQC-UHFFFAOYSA-N,0
NMCHQXWAEXPBIO-NXKBLUMHNA-N,1
NMDQQLIBCTWDCI-JKHIJQBDNA-N,1
NMGCCCXRAFVYBR-MZBPEEOINA-N,1
NNCXIZTWNQJHHE-LTKGKFJONA-N,1
NOJSGQIOUDVCAR-VAUWNMAASA-N,0
NOSNXRLWJBVCAZ-ZFNJMYIBNA-N,0
NOXBXXMBNRACPR-RTWAWAEBSA-N,0
NOZNXSHZCPTGEH-UHFFFAOYNA-N,1
NRIVFQIOYWIUPX-UHFFFAOYSA-N,0
NRUNWRVDVKJDME-UHFFFAOYNA-N,0
NTUJACGXFSGTKR-GBRXSXMXNA-N,1
NUBPKIDPDKOTSM-BJKOFHAPSA-N,1
NWIALXFYKPFWTR-RQFJTRMXNA-N,1
NXRHUNYYQWAEPD-ZTMACLEXNA-N,1
NYDAOAOFRBMAPQ-MYKRFBFLNA-N,0
NZABAQRVWLTDQC-RMKNXTFCNA-N,1
OAZNVARZWJKVRZ-VQTJNVASSA-N,0
OCYYYXWLRMUURD-GDZAYFCTSA-N,1
ODUGRXFIDSZPEX-XZOQPEGZSA-N,1
OEGLFKRSUMLJAB-UHFFFAOYNA-N,0
OFQYESHFEQJLJU-UHFFFAOYSA-N,0
OHBRURMYVYWCLY-UHFFFAOYSA-N,0
OHCPUCJXJGWRQQ-UHFFFAOYSA-N,1
OHIFKDNMHSXJFA-ALHUJDGANA-N,1
OIJXLIIMXHRJJH-KNLIIKEYSA-N,1
OKDLGOPHONZHNJ-BHOLTBHANA-N,1
OKNXWFSWOBEIQA-UHFFFAOYNA-N,1
ONEIDYFRAIKBGR-SHTGXJIWNA-N,1
OOAABOYCKWLINM-PQKQMNLMNA-N,1
ORKGKDBXZFOPEH-STJDXSHMNA-N,1
OSWHXGQRTJIDDD-NJTBCWBZSA-N,0
OUQSULQDOMUFKO-UHFFFAOYNA-N,0
OUWLFPDEWNFHLB-PDVBFRJSSA-N,0
OVRRAJPGDYSIJW-DQNHKJGCSA-N,0
OWNPADNXDQCYAS-PQKQMNLMNA-N,1
OWQCCLBKHGKZEW-LUBZKBGCNA-N,0
OWVIKBRKPCTDEP-UHFFFAOYSA-N,1
OXJHPRBGUIURHY-FXZLEELENA-N,0
OXJXBBSJYVUZFL-QTZDTBTRNA-N,0
OXZFNGHFFSZQER-UHFFFAOYNA-N,0
OZENIJXJOOOYFL-CCUNMMPZNA-N,0
PAJWWHPCBDKVIC-DSAWFQDNNA-N,1
PDLKKPWJIQINFZ-GQHROEFJSA-N,0
PGCQKOATLUJHHU-KJUVKIIZNA-N,1
PGZRDDYTKFZSFR-ONTIZHBOSA-N,1
PHCGRHWCZTTYDG-AERCQKQUNA-N,1
PHIUGKIKOMWSRX-UHFFFAOYNA-N,1
PHZKNFKDLUYKPR-DULWOPLXNA-N,1
PICPCIFZWHBKPD-RQNOJGIXNA-N,1
PIISJSXOJJEJHX-BYDLNXCSSA-N,0
PIJYPXHMYZYQKC-QEFGTAAINA-N,0
PMLFKOKTRMHUPA-UHFFFAOYSA-N,0
PMTRYEMIYDPQRC-UHFFFAOYSA-N,0
PMZVHFNHFUXDRX-HHHXNRCGSA-N,1
PNJOCKWLEAAKCR-QTIGFWLISA-N,1
POSRSBGSQMKPAD-UHGYTFENNA-N,1
PPDCAWVGWRJLLP-UHFFFAOYNA-N,0
PPVICXFDCXSVFQ-LGDFQUBSNA-N,1
PRXNNMGDEYDQBX-QNWKDYRKNA-N,0
PSBBAGWMKGXQRW-UHFFFAOYNA-N,0
PSEWXIMFSFNCSM-WOJBJXKFSA-N,0
PSXFNRVJRFXGLI-BQZVPMDYNA-N,0
PTSMMFFDBIGIGG-UHFFFAOYSA-N,0
PUKVTBLWMLMNNB-WCMIXUPANA-N,1
PUVQXHUXOFFILU-DBHKEIOZNA-N,1
PVMVBLLHMPCZOJ-UHFFFAOYSA-N,0
PVOSVYGOADCZBI-UHFFFAOYNA-N,0
PWTJPGJJVDQPIK-LILGDFOTSA-N,1
PXDBZSCGSQSKST-UHFFFAOYSA-N,0
PXKALUFKETXVGA-FJBUACJXNA-N,1
PYJURBZJZDHCNO-ODWFAFRFNA-N,0
PYNREKIOUOZLTH-SSNGLDLMSA-N,1
PYQRZQXALHGAGL-UHFFFAOYNA-N,1
PZMUSBZBIIMWES-JOMPHJCRNA-N,0
PZNGKNZTWWIFKL-LEWJYISDSA-N,1
QBUTXSIVFSCICK-QZTJIDSGSA-N,0
QHBZVLDXKCSSNW-VQTJNVASSA-N,1
QHKVIUNOCQLNNO-BJKOFHAPSA-N,1
QMLUYEUSWGRVSP-OMDSDGAENA-N,0
QQYYWTHLPOCWAB-UHFFFAOYSA-N,0
QTJRSFJCMFHRFT-UTFYOTOKSA-N,0
QTSHESPTWSXGCM-BDHVOXNPSA-N,0
RCNZFMKUXIDYPD-JDUOSQTLNA-N,1
REUKRNAMFNVGPA-UHFFFAOYSA-N,0
RHAIHBNTVZYFBZ-OEZCXGOGNA-N,1
RHHKCQJNFKDVRJ-YAUSZHDPSA-N,1
RIMTXZIUOVDSSA-RUZRFBHWNA-N,1
RIURPOJYJOVIKD-FGNNMPKBSA-N,1
RJYXTTZYNRWGOJ-UHFFFAOYSA-N,0
RMQSHJZEEHRRBV-UHFFFAOYNA-N,1
RQYQDVZKXQROMJ-UHFFFAOYSA-N,0
RRRGKFRGFXTFPJ-WATUXHIMNA-N,0
RSKTZPYYFJYNFU-DOSVXBPLSA-N,1
RSYFMDJMLZHEDG-DCLKYCFSNA-N,1
RTQDVBYPQLEWTK-UHFFFAOYSA-N,0
RVSPXGKTWMCWAK-FWNHRDFONA-N,0
RWTGKGGGSFBTMP-QZJGIVKGNA-N,0
RXEUXKSOBMBISK-SYDPFBBJNA-N,1
RZYIZTFGVJVPEF-HJKUHESWSA-N,1
SAMKGNRMLONKJQ-BVDDSOSTNA-N,1
SBLIYIIALWZVLS-UHFFFAOYSA-N,0
SFSHJEFDHGWFLD-GDOYDIOZSA-N,1
SGNVONLZSXAOEF-UHFFFAOYSA-N,0
SIIKUSQIIPEOEA-ZPMCFJSWSA-N,1
SNFJJCDHDZXMFR-UHFFFAOYNA-N,1
SQWPOLRABKPQAP-UHFFFAOYNA-N,1
SRCHCGWKBLCANK-UHFFFAOYSA-N,0
SSXWGBNGZDJNOZ-UHFFFAOYSA-N,0
SUVVGGNTFOTDPX-VYZQHFTRSA-N,1
SYZRHTJCHZURER-UHFFFAOYSA-N,0
TTXSDEBRWAKODM-BPNGFBHSNA-N,1
TUTNDJCURTYMCS-JBECCJJFNA-N,0
TWMQOWPVAYQCMJ-UHFFFAOYSA-N,0
TWOHYSGFUMRTOK-YVFKOZJZNA-N,1
TWQQFRJQSQBQAP-QGWLRBGJNA-N,1
TXWCNUHPGIFTBI-UHFFFAOYSA-N,0
TXWOTCVSUZXJMH-UHFFFAOYNA-N,0
TYDSNTMUQPPTLL-UHFFFAOYSA-N,0
TYLOSFLISPNLLQ-CLTSTUCLNA-N,0
UASZQZJXTOBNEL-LOGRTVCANA-N,1
UBVAWNXBDTXGKH-IFQIAONGNA-N,0
UEUNIDSAYSDNGK-UHFFFAOYSA-N,0
UFXAVXCMLJAXQF-RLJJBECVNA-N,1
UISRUEXBGYZLGL-XAGHGKQISA-N,0
UJZSYHINYXYUSQ-CDMBLERJNA-N,1
ULKQZFRXRYHPCM-JKOCUPSMNA-N,0
ULOWZIQCEGBTDH-UHFFFAOYSA-N,0
UMPFOWXMGXYTIF-DOSVXBPLSA-N,1
URGAVVVNIXRWJX-HXUWFJFHSA-N,1
UUVPAMPYCDXAEZ-UHFFFAOYNA-N,0
UVUFQEMGPJPSIS-LFZNWYQONA-N,1
UWHDLFOAIARROU-FQKVKQEKNA-N,0
UYDKZSOZIDJSJS-QTGUNEKASA-N,0
VAIUHFYOMQHXGV-UHFFFAOYNA-N,1
VARCIQVXDHUYNT-UHFFFAOYSA-N,0
VBBPAGAXRSVWOW-LEWJYISDSA-N,1
VHCNOYOSVSAAAS-CFMDGPSZSA-N,0
VIWGUIYNVDSJQW-SMOGYMJSNA-N,0
VJGYEDILSGGSMK-JGTIGSCBNA-N,1
VLMOWWYUNPBPIQ-KICWZURGSA-N,1
VMGFMOIZZDBILY-VHWFRXLWNA-N,0
VMJRNRWFFHGSDM-TUNNFDKTSA-N,1
VNFUBZPSBOVTPN-UHFFFAOYSA-N,0
VQFQDVUTAWAJAQ-JZRMPFOYSA-N,0
VQTHZCXPQJPNIU-QDDJUAHTNA-N,0
VSBFHNWLJXFFTK-UHFFFAOYNA-N,1
VSDXQLNICFHYQZ-UHFFFAOYSA-N,0
VUDMJACUAGOBNX-ARFFLKCMNA-N,1
VVAUJGRUARTNBV-REMWNZQGNA-N,1
VWSXPYLFSCGNFJ-UHFFFAOYNA-N,1
VXBHWQCEDNMXSE-REMWNZQGNA-N,0
VXOIRRPDOYHHNF-UHFFFAOYNA-N,0
VYECARJSDZCAQH-KTUIIORINA-N,0
VZFMMNGEYJPVFF-UHFFFAOYSA-N,0
VZIPEFHBXCQMEJ-UHFFFAOYSA-N,0
WANLIISAKAJTRU-UEZWJRIANA-N,1
WBBBVZGQADABSU-CXGTYELPNA-N,0
WBQLTIHOUOWFAC-RNZRUAGMNA-N,0
WFMQFEDXEBTDHZ-NTASORKHSA-N,1
WFTLXDMKPSQGLK-KGLUCSQONA-N,1
WFVKOTYYEOGHGI-FDFHNCONSA-N,0
WGTCBXOFOSMWEQ-TWYLJJHKNA-N,0
WJRDBMPSRMAQBU-CKOJZWGZNA-N,0
WLGQGKOZUDOESI-MLPOZIHZNA-N,0
WNIKNGMOHBBZMW-RMLXENMHNA-N,0
WNSMOIVNUPXGGF-AIZNXBIQNA-N,0
WRHNLIOZZWRRPX-UHFFFAOYNA-N,1
WSFQCNYXQWFYJC-VQTJNVASSA-N,1
WTSCLWNVCQRQHL-UHFFFAOYSA-N,0
WVSXHGGHIPRNNC-FKBYEOEOSA-N,0
WWWFZTYANOYXAV-NHHVUSELSA-N,0
WXVWWJSTSHLJIZ-UHFFFAOYSA-N,0
WYHZNSRQYYJYTK-KBPBESRZSA-N,0
WYVUIGGBLROEHN-OAQYLSRUSA-N,1
WYYKJTQJARVRLI-QCGZRZHNNA-N,0
WZIFGARJUREPNL-UHFFFAOYSA-N,0
XBOVKQLHLQXFSN-RIQHXAKLNA-N,0
XCNXSKUANFFFIK-HLTMONIZNA-N,0
XCSVQYRKBHKRNV-ZMFXIGSINA-N,1
XDBSOVFDSPYHQJ-UHFFFAOYNA-N,1
XEBPZHOPFBWRJR-DELVQXDCNA-N,1
XESIYKHUDOXYHW-UHFFFAOYSA-N,0
XGPDZNXHEQJDTK-RMPBONJYSA-N,0
XHIUPRGKXRAZCR-HQBVPOQASA-N,0
XIJHWXXXIMEHKW-XNUIIPKDNA-N,0
XMLGFWNLDRPFTA-UHFFFAOYNA-N,1
XMXHEBAFVSFQEX-UHFFFAOYSA-N,0
XNHYWJKLNSIKRT-UHFFFAOYNA-N,1
XNTWBVQHBKQHRL-LEWJYISDSA-N,1
XNVZMIQGQHRIQL-HFMHOYRHNA-N,1
XPQRNKXMGBKCML-UHFFFAOYSA-N,0
XQGIJHKNYXVEPO-CEFBYKNXNA-N,1
XQXRLEVMBWPGQK-QYRYXDJWNA-N,1
XRJGWSMTLAFHBN-UHFFFAOYSA-N,0
XSMHQUVJKYIKHG-UHFFFAOYSA-N,0
XSYMBKQKMSKFJU-LEKCGIOJSA-N,0
XTHRYOXBWGIYIB-UXHICEINSA-N,0
XYEIPZFSMVUKKD-UXZZKWOBNA-N,1
YAPVIJGWCDQIJZ-CEWLAPEOSA-N,1
YDIIFVJEPLBNRX-HSVKNGHNSA-N,0
YDJNXOUXAWOVLP-LXTXMCIRNA-N,0
YDNWOYMILPCFGF-UHFFFAOYSA-N,0
YFGBQHOOROIVKG-FKBYEOEOSA-N,0
YGDGBZQTGCWFHN-MGDWPXCNNA-N,1
YJAZHMHKHAZEMM-YDYDEZBNNA-N,1
YJLSYEUKIODMDR-OAQYLSRUSA-N,1
YJSPSLIZUIOLBQ-SQTNZOPGNA-N,0
YJXFIUSAXFKMAV-GNLPSFAGNA-N,0
YMQBQNZSHDBDTL-QGKOMHMLNA-N,0
YNPJXHDZWVQOGL-GMQQYTKMSA-N,0
YRWWZNCXCQAWEQ-UHFFFAOYNA-N,1
YTXYSUHLDDXFGK-MZBPEEOINA-N,0
YUOJNJIUXXIUHY-UHFFFAOYNA-N,0
YWZUTHYBZDSTKA-GAIVCZKXNA-N,1
YYNRSCGPLWDLNI-OWJJGUDVNA-N,1
YYOVPCXQEQNQFG-SXOMAYOGSA-N,0
ZBOHQLGDDZMWIW-NPWZQIIZNA-N,1
ZBVIRJRRQRKZEM-UHFFFAOYSA-N,1
ZBXWZLGBCKBMLA-UHFFFAOYNA-N,0
ZCJXLAJPRZNEBL-TUYDJMMYNA-N,1
ZCMKIWCTOBBNBE-UHFFFAOYSA-N,0
ZDPVLYPFUJZEOD-ODFWGIBRSA-N,1
ZDTJDJNWJRVPMJ-VQSHEKOQNA-N,1
ZDWOWDGPQWPTJO-RSYHIDCONA-N,1
ZDXGFIXMPOUDFF-UHFFFAOYNA-N,1
ZJYXDBCNDMMCRG-LEFKRGDZNA-N,0
ZMXCJLNJGRUKOH-SSIAJPCRNA-N,1
ZONATBMJYVOZDG-WHGHNYNKNA-N,1
ZPOAUFCILBOBJR-WGNUXWFFNA-N,1
ZPSYUWNXHKESJR-QOBMUPGUNA-N,1
ZSGJCOIDJPQFND-LEWJYISDSA-N,1
ZTOGMMJUJDWAOF-MIZOOUKDNA-N,1
ZTOSFWCWCBOHMN-XPDOEFRDNA-N,1
ZTZJBSOOYPRHDV-GXDKJSNBNA-N,0
ZUVSIBRHCXOYOZ-FWNHRDFONA-N,1
ZVXQZUKBMFIFPS-HPKXOURWNA-N,1
ZWDRGROQJMUOOH-BJBWTDHFNA-N,0
ZYESGPQRGYSCFE-SXOXXYQQSA-N,1
ZZANZGQVTYIQHJ-IHQMAHPINA-N,1
ZZGMDVZBHCTYDZ-UHFFFAOYSA-N,1
ZZMLDIIIAOTFLN-SABHBZEYNA-N,1
AIBFBJNNRKSGIA-ZPMCFJSWSA-N,1
ANNRJHLKKKJIJA-DKZVUGQWSA-N,1
APBMIJVTKUYZCN-LZODFSLANA-N,1
ARMVYVANYSKLSH-GJTBRAPZNA-N,1
AUBONLVMDCVPQE-UHFFFAOYSA-N,0
BGUGOHUJPKNGCB-UHFFFAOYNA-N,1
BKWSYTVAXNIJBM-QMWHLIRCNA-N,1
BSPPZJZWKVYWNH-DUUNOXSYNA-N,0
BWOMRDADNOYECR-KMNSKXAHNA-N,1
BZYRMCWIFYJDQA-UHFFFAOYSA-N,0
CATQJVYULSTQBK-RSKQCBTLNA-N,0
CIWNAGFVIRHUEY-YCRPNKLZSA-N,0
CRCHFTNTZRGKSN-PDGCSGRWNA-N,0
CZRWDWGQXCPHDZ-BGQFJGPDNA-N,1
DJAYBEDVSUFFSP-FFRYNLBANA-N,1
DSMNGWOUQMYTJH-MBPVOVBZSA-N,0
DXZLJNDUWMCCBD-JKHIJQBDNA-N,0
FBLAYKAWVSYTGT-UHFFFAOYSA-N,0
FCDWJNPFPYAKET-UHFFFAOYSA-N,0
FTRPHDADAQFTRY-PUXBKLJXNA-N,0
FZESJEAHFRNXME-PJDXPPHMSA-N,0
GKBLBGBXCLKVGY-KRWDZBQOSA-N,1
GNOWSJYOGJOBFL-LGSXMXSWNA-N,1
GPYPKJSWTUPINZ-FPKCVTQUNA-N,1
HCRKFMPEDIKLJD-SJUZRXCRNA-N,0
HZDFHSBNWGNVNS-LPCDZLESSA-N,1
IBCQXUFYLSOLLE-ONLSGKPCNA-N,1
IDSIUINGWBNUFD-UHFFFAOYSA-N,1
IFKLAQQSCNILHL-PUKFJJHONA-N,1
IPENZWWLBYJXCB-KLKKBBNASA-N,0
ITSKLKVKISMXJX-AZKXBNKQSA-N,1
IUABQYRNMVGELB-GXUZWNQXNA-N,1
JGWKXFYZDYSKQR-VWTVKFNDNA-N,0
JLVNEHKORQFVQJ-GTVPODKMNA-N,1
JNWVOPIDONHTEO-STJDXSHMNA-N,1
JTQATWGVTYJOFY-UHFFFAOYSA-N,0
JUUXBSSXSLHJHP-UHFFFAOYSA-N,0
JVXOOVJIDALVNR-IVZGDYKBSA-N,1
KNIJPQOCIDQTJR-DYZJZLFBSA-N,1
KODQXFPDEKACDT-WJCIMCJESA-N,0
LNJHASBKWJLOSC-VJUNHVAPSA-N,0
LNMMKKNXJRCNIT-UHFFFAOYSA-N,1
LVUYIEJZQHIBNE-DUXBJXIBNA-N,0
LWJQJBOPDYTMKC-IWPJAIBNNA-N,0
LZPSGESQYZAVOM-UHFFFAOYNA-N,0
MIFSERBMWGERMW-NVUSZCTRNA-N,1
MKCNXIXFBHSWPM-CAQJENOZSA-N,0
MTJGMTDHBHXMOS-UHFFFAOYNA-N,1
NHSCFHJJYJIBGA-GMQQYTKMSA-N,0
OCIDAPABHMBEIS-VVPQYXBXSA-N,0
ODBHOLKTMJCQDG-QCXMXVNLNA-N,0
OFLGOYCLWHCQAR-XYCDZODJNA-N,1
OFVJIPBZIJXBCH-KQISJPAINA-N,1
OHXOHFFJLNRYPZ-LZIVIYIBNA-N,1
PFTBDOJJLQUYBG-UHFFFAOYSA-N,0
PNKGWKXKIPIROR-MGDWPXCNNA-N,0
PQPOQASWNKXWGE-QUURXOELSA-N,1
QHLGXPUIUKSADT-UHFFFAOYNA-N,0
QIDWLHXLGKPNAX-UHFFFAOYNA-N,0
QMPGKHYVAFTWNZ-JLSHZRNVNA-N,0
QQZAONXNRRTLKS-VFPIIXLXSA-N,1
QURAQIGQNZYJHP-UHFFFAOYSA-N,1
RASYJBAUQKYAME-PJRPWTOZSA-N,0
RCUXYQHALUHPCU-FJVUIBOGSA-N,0
RDLWAHGUMRAINK-UHFFFAOYSA-N,0
RJWCOGYISGJIPN-UHFFFAOYSA-N,0
RLRSONQNLJWHBO-HXUWFJFHSA-N,1
RMOUVFCRISRYIQ-PYNKPDGRNA-N,1
RZQBFSLQLZYXNW-KDUGSRKYNA-N,0
SCPYAGLHLAAYFP-UHFFFAOYSA-N,0
SODRQESUEWMWQE-UHFFFAOYNA-N,1
SRJCZIVRZNUHTA-UHFFFAOYSA-N,0
SUUJWXLFHRQIRQ-VXKWHMMOSA-N,0
SWGQUHGWQUPGLK-XLFKYWOJNA-N,0
UABZPISCAICSOU-KTJHOKPANA-N,0
UADHANNMPIDBKW-MIZOOUKDNA-N,1
UHIQNBBDQHKNJV-UHFFFAOYSA-N,0
UZNYQBPYWSEMLM-JCVDRHSJSA-N,1
VDUSIGSQGZWLMD-XLXAPLRVNA-N,1
VHAISVIZOZORLQ-TYSZLRMISA-N,1
VPZYSEKOPYTWBE-UHFFFAOYSA-N,0
VVHSUUHMZLJMTM-VCZXBEBONA-N,0
WRPLGMBDXVBPEG-VGXZEHLRSA-N,1
WXOUFNFMPVMGFZ-BAYXQEEBNA-N,1
WYIKDGQRKDCMOA-UHFFFAOYNA-N,1
XJLQVNWODQXMLN-OINUPAFWNA-N,0
XVFXJQGBDPFCRF-UHFFFAOYSA-N,1
YJYUIXQWAGWQFA-UHFFFAOYNA-N,0
YLBCEPFGHKPHJM-UHFFFAOYSA-N,0
YSEXVIPNIGQQMN-UHFFFAOYNA-N,0
YWXSTYXWHKOZCD-KAVGSWPWNA-N,0
YYSNCTVQAHLFAK-DJGQEPPCSA-N,0
YZVYKVIOBHNZMX-UHFFFAOYSA-M,0
ZCLDNSPFEQSCIU-CCFMCOOVNA-N,0
ZMWRJNLVIJIQHW-NASKUFFKSA-N,0
ZUHLFYHHSNMSRE-UHFFFAOYNA-N,0
ZWTVJSVNQFQXRB-UHFFFAOYNA-N,0
ZZEVNYNMIVJANK-UHFFFAOYNA-N,0