#ActTrain= 1032 #InactTrain= 1462 
 #ActTest= 259 #InactTest= 367 
 knn1= 0.8707826160142236 
 [[326  41]
 [ 38 221]] 
 lr= 0.9548988459070203 
 [[367   0]
 [259   0]] 
 rf= 0.9571870430181058 
 [[367   0]
 [238  21]] 
 svm= 0.8974309069676917 
 [[367   0]
 [259   0]] 
 AA-AI= 0.14185328185328194 
 II-IA= 0.30305177111716625 
 (AA-AI)+(II-IA)= 0.4449050529704482 

