#ActTrain= 1382 #InactTrain= 1428 
 #ActTest= 343 #InactTest= 357 
 knn1= 0.8363631166752415 
 [[287  70]
 [ 45 298]] 
 lr= 0.9329446064139941 
 [[357   0]
 [343   0]] 
 rf= 0.9341124204783955 
 [[355   2]
 [309  34]] 
 svm= 0.8463957011375979 
 [[357   0]
 [343   0]] 
 AA-AI= 0.1714868804664722 
 II-IA= 0.18823529411764717 
 (AA-AI)+(II-IA)= 0.35972217458411937 

